Design LibSymbol/And/symbol netlist none BBOX ((0, 0) (28, 24))
Net N__0 signal 
Net N__1 signal 
Net N__2 signal 
Shape Arc at ((16, 0) (28,24)) LPP device/drawing
Shape Line at ((0, 0) (16,24)) LPP device/drawing
Shape Text"And" at ((2, 0) (20,7)) LPP text/labels
Term A on N__0 type input
Term B on N__1 type input
Term Y on N__2 type output
