Design LibSymbol/FullAdder/symbol netlist none BBOX ((0, 0) (159, 95))
Inst Ha1 OF Lib/HalfAdder/netlist R0 LOC (0, 0) BBOX ((0, 0), (0, 0))
Inst Ha2 OF Lib/HalfAdder/netlist R0 LOC (0, 0) BBOX ((0, 0), (0, 0))
Inst Or1 OF Lib/Or/netlist R0 LOC (0, 0) BBOX ((0, 0), (0, 0))
InstTerm Ha1 of A is on N__0
InstTerm Ha1 of B is on N__1
InstTerm Ha1 of C is on N__6
InstTerm Ha1 of S is on N__5
InstTerm Ha2 of A is on N__5
InstTerm Ha2 of B is on N__2
InstTerm Ha2 of C is on N__7
InstTerm Ha2 of S is on N__4
InstTerm Or1 of A is on N__6
InstTerm Or1 of B is on N__7
InstTerm Or1 of Y is on N__3
Net N__0 signal 
Net N__1 signal 
Net N__2 signal 
Net N__3 signal 
Net N__4 signal 
Net N__5 signal 
Net N__6 signal 
Net N__7 signal 
Shape Rect at ((3, 3) (159,95)) LPP device/drawing
Shape Text"FullAdder" at ((2, 0) (54,7)) LPP text/labels
Term A on N__0 type input
Term B on N__1 type input
Term Ci on N__2 type input
Term Co on N__3 type output
Term S on N__4 type output
