
Currently open Designs:
______________________________  Design"Lib|Sample|schematic"
==================== BLOCK DOMAIN ====================

[1]BLOCK
 Block
  [1]INSTHEADER
   InstHeader UNBOUND=> DESIGN
    [3]INSTs
     ScalarInst"Inst3" R0(0,810)
      [3]INSTTERMs
       InstTerm" SUM" EX BITS=1 UNBOUND CONN2"N7"
       InstTerm" b" EX BITS=1 UNBOUND CONN2"N6"
       InstTerm" a" EX BITS=1 UNBOUND CONN2"N3"
     ScalarInst"Inst2" R90(220,0)
      [3]INSTTERMs
       InstTerm" SUM" EX BITS=1 UNBOUND CONN2"N6"
       InstTerm" b" EX BITS=1 UNBOUND CONN2"N5"
       InstTerm" a" EX BITS=1 UNBOUND CONN2"N4"
     ScalarInst"Inst1" R90(-220,0)
      [3]INSTTERMs
       InstTerm" SUM" EX BITS=1 UNBOUND CONN2"N3"
       InstTerm" b" EX BITS=1 UNBOUND CONN2"N2"
       InstTerm" a" EX BITS=1 UNBOUND CONN2"N1"
  [10]NETs
   ScalarNet"N1" EXBITS=1 ISPREF
    CONNECTS Terms: "T1"
    CONNECTS InstTerms: "Inst1|a"
   ScalarNet"N2" EXBITS=1 ISPREF
    CONNECTS Terms: "T2"
    CONNECTS InstTerms: "Inst1|b"
   ScalarNet"N3" EXBITS=1 ISPREF
    CONNECTS InstTerms: "Inst3|a" "Inst1|SUM"
   ScalarNet"N4" EXBITS=1 ISPREF
    CONNECTS Terms: "T3"
    CONNECTS InstTerms: "Inst2|a"
   ScalarNet"N5" EXBITS=1 ISPREF
    CONNECTS Terms: "T4"
    CONNECTS InstTerms: "Inst2|b"
   ScalarNet"N6" EXBITS=1 ISPREF
    CONNECTS InstTerms: "Inst3|b" "Inst2|SUM"
   ScalarNet"N7" EXBITS=1 ISPREF
    CONNECTS Terms: "T5"
    CONNECTS InstTerms: "Inst3|SUM"
   ScalarNet"EmptyNet1" EXBITS=1 ISPREF
    CONNECTS Terms: "TermEmptyNet"
   ScalarNet"RouteNet1" EXBITS=1 ISPREF
   ScalarNet"RouteNet2" EXBITS=1 ISPREF
  [6]TERMs
   ScalarTerm"T1" EXBITS=1 input  CONN2"N1" PINCON=default
   ScalarTerm"T2" EXBITS=1 input  CONN2"N2" PINCON=default
   ScalarTerm"T3" EXBITS=1 input  CONN2"N4" PINCON=default
   ScalarTerm"T4" EXBITS=1 input  CONN2"N5" PINCON=default
   ScalarTerm"T5" EXBITS=1 output CONN2"N7" PINCON=default
   ScalarTerm"TermEmptyNet" EXBITS=1 input  CONN2"EmptyNet1" PINCON=default
==================== MODULE DOMAIN ====================

[1]MODINSTHEADER
 ModInstHeader"Lib|Gate|schematic" BOUND=> Design"Lib|Gate|schematic"
  [3]MODDESIGNINSTs
   ModScalarInst"Sample"|"Inst3" BOUND "Gate"[TOP]
   ModScalarInst"Sample"|"Inst2" BOUND "Gate"[TOP]
   ModScalarInst"Sample"|"Inst1" BOUND "Gate"[TOP]

[1]MODULE
 Module"Sample" TOP
  [3]MODDESIGNINSTs
   ModScalarInst"Inst1"
    [3]INSTTERMs
     ModInstTerm" SUM" EX BITS=1 BOUND CONN2"N3"
     ModInstTerm" b" EX BITS=1 BOUND CONN2"N2"
     ModInstTerm" a" EX BITS=1 BOUND CONN2"N1"
   ModScalarInst"Inst2"
    [3]INSTTERMs
     ModInstTerm" SUM" EX BITS=1 BOUND CONN2"N6"
     ModInstTerm" b" EX BITS=1 BOUND CONN2"N5"
     ModInstTerm" a" EX BITS=1 BOUND CONN2"N4"
   ModScalarInst"Inst3"
    [3]INSTTERMs
     ModInstTerm" SUM" EX BITS=1 BOUND CONN2"N7"
     ModInstTerm" b" EX BITS=1 BOUND CONN2"N6"
     ModInstTerm" a" EX BITS=1 BOUND CONN2"N3"
  [10]MODNETs
   ModScalarNet"N1" EXBITS=1
    CONNECTS ModTerms: "T1"
    CONNECTS ModInstTerms:"Inst1|a"
   ModScalarNet"N2" EXBITS=1
    CONNECTS ModTerms: "T2"
    CONNECTS ModInstTerms:"Inst1|b"
   ModScalarNet"N3" EXBITS=1
    CONNECTS ModInstTerms:"Inst3|a""Inst1|SUM"
   ModScalarNet"N4" EXBITS=1
    CONNECTS ModTerms: "T3"
    CONNECTS ModInstTerms:"Inst2|a"
   ModScalarNet"N5" EXBITS=1
    CONNECTS ModTerms: "T4"
    CONNECTS ModInstTerms:"Inst2|b"
   ModScalarNet"N6" EXBITS=1
    CONNECTS ModInstTerms:"Inst3|b""Inst2|SUM"
   ModScalarNet"N7" EXBITS=1
    CONNECTS ModTerms: "T5"
    CONNECTS ModInstTerms:"Inst3|SUM"
   ModScalarNet"EmptyNet1" EXBITS=1
    CONNECTS ModTerms: "TermEmptyNet"
   ModScalarNet"RouteNet1" EXBITS=1
   ModScalarNet"RouteNet2" EXBITS=1
  [6]MODTERMs
   ModScalarTerm"T1" EXBITS=1 input  CONN2"N1"
   ModScalarTerm"T2" EXBITS=1 input  CONN2"N2"
   ModScalarTerm"T3" EXBITS=1 input  CONN2"N4"
   ModScalarTerm"T4" EXBITS=1 input  CONN2"N5"
   ModScalarTerm"T5" EXBITS=1 output CONN2"N7"
   ModScalarTerm"TermEmptyNet" EXBITS=1 input  CONN2"EmptyNet1"
==================== OCCURRENCE DOMAIN ====================

[TOP] Occurrence
  -> Block"Lib|Sample|schematic"  -> Module"Sample"
  [3]OCCDESIGNINSTs
   OccScalarInst"Inst1"
    -> ScalarInst"Inst1"  -> ModScalarInst"Inst1"
   OccScalarInst"Inst2"
    -> ScalarInst"Inst2"  -> ModScalarInst"Inst2"
   OccScalarInst"Inst3"
    -> ScalarInst"Inst3"  -> ModScalarInst"Inst3"
  [10]OCCNETs
   OccScalarNet"N1" EXBITS=1
    CONNECTS OccTerms: "T1"
    CONNECTS OccInstTerms:"Inst1|a"
    -> ScalarNet"N1"  -> ModScalarNet"N1"
   OccScalarNet"N2" EXBITS=1
    CONNECTS OccTerms: "T2"
    CONNECTS OccInstTerms:"Inst1|b"
    -> ScalarNet"N2"  -> ModScalarNet"N2"
   OccScalarNet"N3" EXBITS=1
    CONNECTS OccInstTerms:"Inst3|a""Inst1|SUM"
    -> ScalarNet"N3"  -> ModScalarNet"N3"
   OccScalarNet"N4" EXBITS=1
    CONNECTS OccTerms: "T3"
    CONNECTS OccInstTerms:"Inst2|a"
    -> ScalarNet"N4"  -> ModScalarNet"N4"
   OccScalarNet"N5" EXBITS=1
    CONNECTS OccTerms: "T4"
    CONNECTS OccInstTerms:"Inst2|b"
    -> ScalarNet"N5"  -> ModScalarNet"N5"
   OccScalarNet"N6" EXBITS=1
    CONNECTS OccInstTerms:"Inst3|b""Inst2|SUM"
    -> ScalarNet"N6"  -> ModScalarNet"N6"
   OccScalarNet"N7" EXBITS=1
    CONNECTS OccTerms: "T5"
    CONNECTS OccInstTerms:"Inst3|SUM"
    -> ScalarNet"N7"  -> ModScalarNet"N7"
   OccScalarNet"EmptyNet1" EXBITS=1
    CONNECTS OccTerms: "TermEmptyNet"
    -> ScalarNet"EmptyNet1"  -> ModScalarNet"EmptyNet1"
   OccScalarNet"RouteNet1" EXBITS=1
    -> ScalarNet"RouteNet1"  -> ModScalarNet"RouteNet1"
   OccScalarNet"RouteNet2" EXBITS=1
    -> ScalarNet"RouteNet2"  -> ModScalarNet"RouteNet2"
  [6]OCCTERMs
   OccScalarTerm"T1" EXBITS=1 input  CONN2"N1"
    -> ScalarTerm"T1"  -> ModScalarTerm"T1"
   OccScalarTerm"T2" EXBITS=1 input  CONN2"N2"
    -> ScalarTerm"T2"  -> ModScalarTerm"T2"
   OccScalarTerm"T3" EXBITS=1 input  CONN2"N4"
    -> ScalarTerm"T3"  -> ModScalarTerm"T3"
   OccScalarTerm"T4" EXBITS=1 input  CONN2"N5"
    -> ScalarTerm"T4"  -> ModScalarTerm"T4"
   OccScalarTerm"T5" EXBITS=1 output CONN2"N7"
    -> ScalarTerm"T5"  -> ModScalarTerm"T5"
   OccScalarTerm"TermEmptyNet" EXBITS=1 input  CONN2"EmptyNet1"
    -> ScalarTerm"TermEmptyNet"  -> ModScalarTerm"TermEmptyNet"
[1]OCCINSTHEADER
 OccInstHeader"Lib|Gate|schematic" BOUND=> Design"Lib|Gate|schematic"
  -> InstHeader  -> ModInstHeader
  [3]OCCDESIGNINSTs
   OccScalarInst"Inst3"
    -> ScalarInst"Inst3"  -> ModScalarInst"Inst3"
    [3]INSTTERMs
     OccInstTerm" SUM" EX BITS=1 UNBOUND CONN2"N7"
     OccInstTerm" b" EX BITS=1 UNBOUND CONN2"N6"
     OccInstTerm" a" EX BITS=1 UNBOUND CONN2"N3"
    MASTEROCC=UNBOUND
   OccScalarInst"Inst2"
    -> ScalarInst"Inst2"  -> ModScalarInst"Inst2"
    [3]INSTTERMs
     OccInstTerm" SUM" EX BITS=1 UNBOUND CONN2"N6"
     OccInstTerm" b" EX BITS=1 UNBOUND CONN2"N5"
     OccInstTerm" a" EX BITS=1 UNBOUND CONN2"N4"
    MASTEROCC=UNBOUND
   OccScalarInst"Inst1"
    -> ScalarInst"Inst1"  -> ModScalarInst"Inst1"
    [3]INSTTERMs
     OccInstTerm" SUM" EX BITS=1 UNBOUND CONN2"N3"
     OccInstTerm" b" EX BITS=1 UNBOUND CONN2"N2"
     OccInstTerm" a" EX BITS=1 UNBOUND CONN2"N1"
    MASTEROCC=UNBOUND
 
______________________________  Design"Lib|Gate|schematic"
==================== BLOCK DOMAIN ====================

[1]BLOCK
 Block
  [3]INSTHEADERs
   InstHeader UNBOUND=> DESIGN
    [1]INST
     ScalarInst"OrInst" R0(0,0)
      [3]INSTTERMs
       InstTerm" T3" EX BITS=1 UNBOUND CONN2"N3"
       InstTerm" T2" EX BITS=1 UNBOUND CONN2"N2"
       InstTerm" T1" EX BITS=1 UNBOUND CONN2"N1"
   InstHeader UNBOUND=> DESIGN
    [2]INSTs
     ScalarInst"NandInst2" R0(260,-70)
      [3]INSTTERMs
       InstTerm" T3" EX BITS=1 UNBOUND CONN2"N5"
       InstTerm" T2" EX BITS=1 UNBOUND CONN2"N4"
       InstTerm" T1" EX BITS=1 UNBOUND CONN2"N3"
     ScalarInst"NandInst1" R0(0,-140)
      [3]INSTTERMs
       InstTerm" T3" EX BITS=1 UNBOUND CONN2"N4"
       InstTerm" T2" EX BITS=1 UNBOUND CONN2"N2"
       InstTerm" T1" EX BITS=1 UNBOUND CONN2"N1"
   InstHeader UNBOUND=> DESIGN
    [1]INST
     ScalarInst"InvInst" R0(480,-60)
      [2]INSTTERMs
       InstTerm" T2" EX BITS=1 UNBOUND CONN2"N6"
       InstTerm" T1" EX BITS=1 UNBOUND CONN2"N5"
  [7]NETs
   ScalarNet"N1" EXBITS=1 ISPREF
    CONNECTS Terms: "a"
    CONNECTS InstTerms: "NandInst1|T1" "OrInst|T1"
   ScalarNet"N2" EXBITS=1 ISPREF
    CONNECTS Terms: "b"
    CONNECTS InstTerms: "NandInst1|T2" "OrInst|T2"
   ScalarNet"N3" EXBITS=1 ISPREF
    CONNECTS InstTerms: "NandInst2|T1" "OrInst|T3"
   ScalarNet"N4" EXBITS=1 ISPREF
    CONNECTS InstTerms: "NandInst2|T2" "NandInst1|T3"
   ScalarNet"N5" EXBITS=1 ISPREF
    CONNECTS Terms: "Term-open"
    CONNECTS InstTerms: "InvInst|T1" "NandInst2|T3"
   ScalarNet"N6" EXBITS=1 ISPREF
    CONNECTS Terms: "SUM"
    CONNECTS InstTerms: "InvInst|T2"
   ScalarNet"ShapeRouteNet" EXBITS=1 ISPREF
    CONNECTS Terms: "TermOnShapeRouteNet"
  [5]TERMs
   ScalarTerm"a" EXBITS=1 input  CONN2"N1" PINCON=default
   ScalarTerm"b" EXBITS=1 input  CONN2"N2" PINCON=default
   ScalarTerm"Term-open" EXBITS=1 output CONN2"N5" PINCON=default
   ScalarTerm"SUM" EXBITS=1 output CONN2"N6" PINCON=default
   ScalarTerm"TermOnShapeRouteNet" EXBITS=1 input  CONN2"ShapeRouteNet" PINCON=default
==================== MODULE DOMAIN ====================

[3]MODINSTHEADERs
 ModInstHeader"Lib|Or|schematic" BOUND=> Design"Lib|Or|schematic"
  [1]MODDESIGNINST
   ModScalarInst"Gate"|"OrInst" BOUND "Or"[TOP]
 ModInstHeader"Lib|Nand|schematic" BOUND=> Design"Lib|Nand|schematic"
  [2]MODDESIGNINSTs
   ModScalarInst"Gate"|"NandInst2" BOUND "Nand"[TOP]
   ModScalarInst"Gate"|"NandInst1" BOUND "Nand"[TOP]
 ModInstHeader"Lib|Inv|schematic" BOUND=> Design"Lib|Inv|schematic"
  [1]MODDESIGNINST
   ModScalarInst"Gate"|"InvInst" BOUND "Inv"[TOP]

[1]MODULE
 Module"Gate" TOP
  [4]MODDESIGNINSTs
   ModScalarInst"OrInst"
    [3]INSTTERMs
     ModInstTerm" T3" EX BITS=1 BOUND CONN2"N3"
     ModInstTerm" T2" EX BITS=1 BOUND CONN2"N2"
     ModInstTerm" T1" EX BITS=1 BOUND CONN2"N1"
   ModScalarInst"NandInst1"
    [3]INSTTERMs
     ModInstTerm" T3" EX BITS=1 BOUND CONN2"N4"
     ModInstTerm" T2" EX BITS=1 BOUND CONN2"N2"
     ModInstTerm" T1" EX BITS=1 BOUND CONN2"N1"
   ModScalarInst"NandInst2"
    [3]INSTTERMs
     ModInstTerm" T3" EX BITS=1 BOUND CONN2"N5"
     ModInstTerm" T2" EX BITS=1 BOUND CONN2"N4"
     ModInstTerm" T1" EX BITS=1 BOUND CONN2"N3"
   ModScalarInst"InvInst"
    [2]INSTTERMs
     ModInstTerm" T2" EX BITS=1 BOUND CONN2"N6"
     ModInstTerm" T1" EX BITS=1 BOUND CONN2"N5"
  [7]MODNETs
   ModScalarNet"N1" EXBITS=1
    CONNECTS ModTerms: "a"
    CONNECTS ModInstTerms:"NandInst1|T1""OrInst|T1"
   ModScalarNet"N2" EXBITS=1
    CONNECTS ModTerms: "b"
    CONNECTS ModInstTerms:"NandInst1|T2""OrInst|T2"
   ModScalarNet"N3" EXBITS=1
    CONNECTS ModInstTerms:"NandInst2|T1""OrInst|T3"
   ModScalarNet"N4" EXBITS=1
    CONNECTS ModInstTerms:"NandInst2|T2""NandInst1|T3"
   ModScalarNet"N5" EXBITS=1
    CONNECTS ModTerms: "Term-open"
    CONNECTS ModInstTerms:"InvInst|T1""NandInst2|T3"
   ModScalarNet"N6" EXBITS=1
    CONNECTS ModTerms: "SUM"
    CONNECTS ModInstTerms:"InvInst|T2"
   ModScalarNet"ShapeRouteNet" EXBITS=1
    CONNECTS ModTerms: "TermOnShapeRouteNet"
  [5]MODTERMs
   ModScalarTerm"a" EXBITS=1 input  CONN2"N1"
   ModScalarTerm"b" EXBITS=1 input  CONN2"N2"
   ModScalarTerm"Term-open" EXBITS=1 output CONN2"N5"
   ModScalarTerm"SUM" EXBITS=1 output CONN2"N6"
   ModScalarTerm"TermOnShapeRouteNet" EXBITS=1 input  CONN2"ShapeRouteNet"
==================== OCCURRENCE DOMAIN ====================

[TOP] Occurrence
  -> Block"Lib|Gate|schematic"  -> Module"Gate"
  [4]OCCDESIGNINSTs
   OccScalarInst"OrInst"
    -> ScalarInst"OrInst"  -> ModScalarInst"OrInst"
   OccScalarInst"NandInst1"
    -> ScalarInst"NandInst1"  -> ModScalarInst"NandInst1"
   OccScalarInst"NandInst2"
    -> ScalarInst"NandInst2"  -> ModScalarInst"NandInst2"
   OccScalarInst"InvInst"
    -> ScalarInst"InvInst"  -> ModScalarInst"InvInst"
  [7]OCCNETs
   OccScalarNet"N1" EXBITS=1
    CONNECTS OccTerms: "a"
    CONNECTS OccInstTerms:"NandInst1|T1""OrInst|T1"
    -> ScalarNet"N1"  -> ModScalarNet"N1"
   OccScalarNet"N2" EXBITS=1
    CONNECTS OccTerms: "b"
    CONNECTS OccInstTerms:"NandInst1|T2""OrInst|T2"
    -> ScalarNet"N2"  -> ModScalarNet"N2"
   OccScalarNet"N3" EXBITS=1
    CONNECTS OccInstTerms:"NandInst2|T1""OrInst|T3"
    -> ScalarNet"N3"  -> ModScalarNet"N3"
   OccScalarNet"N4" EXBITS=1
    CONNECTS OccInstTerms:"NandInst2|T2""NandInst1|T3"
    -> ScalarNet"N4"  -> ModScalarNet"N4"
   OccScalarNet"N5" EXBITS=1
    CONNECTS OccTerms: "Term-open"
    CONNECTS OccInstTerms:"InvInst|T1""NandInst2|T3"
    -> ScalarNet"N5"  -> ModScalarNet"N5"
   OccScalarNet"N6" EXBITS=1
    CONNECTS OccTerms: "SUM"
    CONNECTS OccInstTerms:"InvInst|T2"
    -> ScalarNet"N6"  -> ModScalarNet"N6"
   OccScalarNet"ShapeRouteNet" EXBITS=1
    CONNECTS OccTerms: "TermOnShapeRouteNet"
    -> ScalarNet"ShapeRouteNet"  -> ModScalarNet"ShapeRouteNet"
  [5]OCCTERMs
   OccScalarTerm"a" EXBITS=1 input  CONN2"N1"
    -> ScalarTerm"a"  -> ModScalarTerm"a"
   OccScalarTerm"b" EXBITS=1 input  CONN2"N2"
    -> ScalarTerm"b"  -> ModScalarTerm"b"
   OccScalarTerm"Term-open" EXBITS=1 output CONN2"N5"
    -> ScalarTerm"Term-open"  -> ModScalarTerm"Term-open"
   OccScalarTerm"SUM" EXBITS=1 output CONN2"N6"
    -> ScalarTerm"SUM"  -> ModScalarTerm"SUM"
   OccScalarTerm"TermOnShapeRouteNet" EXBITS=1 input  CONN2"ShapeRouteNet"
    -> ScalarTerm"TermOnShapeRouteNet"  -> ModScalarTerm"TermOnShapeRouteNet"
[3]OCCINSTHEADERs
 OccInstHeader"Lib|Or|schematic" BOUND=> Design"Lib|Or|schematic"
  -> InstHeader  -> ModInstHeader
  [1]OCCDESIGNINST
   OccScalarInst"OrInst"
    -> ScalarInst"OrInst"  -> ModScalarInst"OrInst"
    [3]INSTTERMs
     OccInstTerm" T3" EX BITS=1 UNBOUND CONN2"N3"
     OccInstTerm" T2" EX BITS=1 UNBOUND CONN2"N2"
     OccInstTerm" T1" EX BITS=1 UNBOUND CONN2"N1"
    MASTEROCC=UNBOUND
 OccInstHeader"Lib|Nand|schematic" BOUND=> Design"Lib|Nand|schematic"
  -> InstHeader  -> ModInstHeader
  [2]OCCDESIGNINSTs
   OccScalarInst"NandInst2"
    -> ScalarInst"NandInst2"  -> ModScalarInst"NandInst2"
    [3]INSTTERMs
     OccInstTerm" T3" EX BITS=1 UNBOUND CONN2"N5"
     OccInstTerm" T2" EX BITS=1 UNBOUND CONN2"N4"
     OccInstTerm" T1" EX BITS=1 UNBOUND CONN2"N3"
    MASTEROCC=UNBOUND
   OccScalarInst"NandInst1"
    -> ScalarInst"NandInst1"  -> ModScalarInst"NandInst1"
    [3]INSTTERMs
     OccInstTerm" T3" EX BITS=1 UNBOUND CONN2"N4"
     OccInstTerm" T2" EX BITS=1 UNBOUND CONN2"N2"
     OccInstTerm" T1" EX BITS=1 UNBOUND CONN2"N1"
    MASTEROCC=UNBOUND
 OccInstHeader"Lib|Inv|schematic" BOUND=> Design"Lib|Inv|schematic"
  -> InstHeader  -> ModInstHeader
  [1]OCCDESIGNINST
   OccScalarInst"InvInst"
    -> ScalarInst"InvInst"  -> ModScalarInst"InvInst"
    [2]INSTTERMs
     OccInstTerm" T2" EX BITS=1 UNBOUND CONN2"N6"
     OccInstTerm" T1" EX BITS=1 UNBOUND CONN2"N5"
    MASTEROCC=UNBOUND
 
______________________________  Design"Lib|Nand|schematic"
==================== BLOCK DOMAIN ====================

[1]BLOCK
 Block
  [3]NETs
   ScalarNet"TopTail" EXBITS=1 ISPREF
    CONNECTS Terms: "T1"
   ScalarNet"BotTail" EXBITS=1 ISPREF
    CONNECTS Terms: "T2"
   ScalarNet"OutTail" EXBITS=1 ISPREF
    CONNECTS Terms: "T3"
  [3]TERMs
   ScalarTerm"T1" EXBITS=1 input  CONN2"TopTail" PINCON=default
   ScalarTerm"T2" EXBITS=1 input  CONN2"BotTail" PINCON=default
   ScalarTerm"T3" EXBITS=1 output CONN2"OutTail" PINCON=default
==================== MODULE DOMAIN ====================


[1]MODULE
 Module"Nand" TOP
  [3]MODNETs
   ModScalarNet"TopTail" EXBITS=1
    CONNECTS ModTerms: "T1"
   ModScalarNet"BotTail" EXBITS=1
    CONNECTS ModTerms: "T2"
   ModScalarNet"OutTail" EXBITS=1
    CONNECTS ModTerms: "T3"
  [3]MODTERMs
   ModScalarTerm"T1" EXBITS=1 input  CONN2"TopTail"
   ModScalarTerm"T2" EXBITS=1 input  CONN2"BotTail"
   ModScalarTerm"T3" EXBITS=1 output CONN2"OutTail"
==================== OCCURRENCE DOMAIN ====================

[TOP] Occurrence
  -> Block"Lib|Nand|schematic"  -> Module"Nand"
  [3]OCCNETs
   OccScalarNet"TopTail" EXBITS=1
    CONNECTS OccTerms: "T1"
    -> ScalarNet"TopTail"  -> ModScalarNet"TopTail"
   OccScalarNet"BotTail" EXBITS=1
    CONNECTS OccTerms: "T2"
    -> ScalarNet"BotTail"  -> ModScalarNet"BotTail"
   OccScalarNet"OutTail" EXBITS=1
    CONNECTS OccTerms: "T3"
    -> ScalarNet"OutTail"  -> ModScalarNet"OutTail"
  [3]OCCTERMs
   OccScalarTerm"T1" EXBITS=1 input  CONN2"TopTail"
    -> ScalarTerm"T1"  -> ModScalarTerm"T1"
   OccScalarTerm"T2" EXBITS=1 input  CONN2"BotTail"
    -> ScalarTerm"T2"  -> ModScalarTerm"T2"
   OccScalarTerm"T3" EXBITS=1 output CONN2"OutTail"
    -> ScalarTerm"T3"  -> ModScalarTerm"T3"
 
______________________________  Design"Lib|Or|schematic"
==================== BLOCK DOMAIN ====================

[1]BLOCK
 Block
  [3]NETs
   ScalarNet"TopTail" EXBITS=1 ISPREF
    CONNECTS Terms: "T1"
   ScalarNet"BotTail" EXBITS=1 ISPREF
    CONNECTS Terms: "T2"
   ScalarNet"OutTail" EXBITS=1 ISPREF
    CONNECTS Terms: "T3"
  [3]TERMs
   ScalarTerm"T1" EXBITS=1 input  CONN2"TopTail" PINCON=default
   ScalarTerm"T2" EXBITS=1 input  CONN2"BotTail" PINCON=default
   ScalarTerm"T3" EXBITS=1 output CONN2"OutTail" PINCON=default
==================== MODULE DOMAIN ====================


[1]MODULE
 Module"Or" TOP
  [3]MODNETs
   ModScalarNet"TopTail" EXBITS=1
    CONNECTS ModTerms: "T1"
   ModScalarNet"BotTail" EXBITS=1
    CONNECTS ModTerms: "T2"
   ModScalarNet"OutTail" EXBITS=1
    CONNECTS ModTerms: "T3"
  [3]MODTERMs
   ModScalarTerm"T1" EXBITS=1 input  CONN2"TopTail"
   ModScalarTerm"T2" EXBITS=1 input  CONN2"BotTail"
   ModScalarTerm"T3" EXBITS=1 output CONN2"OutTail"
==================== OCCURRENCE DOMAIN ====================

[TOP] Occurrence
  -> Block"Lib|Or|schematic"  -> Module"Or"
  [3]OCCNETs
   OccScalarNet"TopTail" EXBITS=1
    CONNECTS OccTerms: "T1"
    -> ScalarNet"TopTail"  -> ModScalarNet"TopTail"
   OccScalarNet"BotTail" EXBITS=1
    CONNECTS OccTerms: "T2"
    -> ScalarNet"BotTail"  -> ModScalarNet"BotTail"
   OccScalarNet"OutTail" EXBITS=1
    CONNECTS OccTerms: "T3"
    -> ScalarNet"OutTail"  -> ModScalarNet"OutTail"
  [3]OCCTERMs
   OccScalarTerm"T1" EXBITS=1 input  CONN2"TopTail"
    -> ScalarTerm"T1"  -> ModScalarTerm"T1"
   OccScalarTerm"T2" EXBITS=1 input  CONN2"BotTail"
    -> ScalarTerm"T2"  -> ModScalarTerm"T2"
   OccScalarTerm"T3" EXBITS=1 output CONN2"OutTail"
    -> ScalarTerm"T3"  -> ModScalarTerm"T3"
 
______________________________  Design"Lib|Inv|schematic"
==================== BLOCK DOMAIN ====================

[1]BLOCK
 Block
  [2]NETs
   ScalarNet"TopTail" EXBITS=1 ISPREF
    CONNECTS Terms: "T1"
   ScalarNet"OutTail" EXBITS=1 ISPREF
    CONNECTS Terms: "T2"
  [2]TERMs
   ScalarTerm"T1" EXBITS=1 input  CONN2"TopTail" PINCON=default
   ScalarTerm"T2" EXBITS=1 output CONN2"OutTail" PINCON=default
==================== MODULE DOMAIN ====================


[1]MODULE
 Module"Inv" TOP
  [2]MODNETs
   ModScalarNet"TopTail" EXBITS=1
    CONNECTS ModTerms: "T1"
   ModScalarNet"OutTail" EXBITS=1
    CONNECTS ModTerms: "T2"
  [2]MODTERMs
   ModScalarTerm"T1" EXBITS=1 input  CONN2"TopTail"
   ModScalarTerm"T2" EXBITS=1 output CONN2"OutTail"
==================== OCCURRENCE DOMAIN ====================

[TOP] Occurrence
  -> Block"Lib|Inv|schematic"  -> Module"Inv"
  [2]OCCNETs
   OccScalarNet"TopTail" EXBITS=1
    CONNECTS OccTerms: "T1"
    -> ScalarNet"TopTail"  -> ModScalarNet"TopTail"
   OccScalarNet"OutTail" EXBITS=1
    CONNECTS OccTerms: "T2"
    -> ScalarNet"OutTail"  -> ModScalarNet"OutTail"
  [2]OCCTERMs
   OccScalarTerm"T1" EXBITS=1 input  CONN2"TopTail"
    -> ScalarTerm"T1"  -> ModScalarTerm"T1"
   OccScalarTerm"T2" EXBITS=1 output CONN2"OutTail"
    -> ScalarTerm"T2"  -> ModScalarTerm"T2"
 


.............. Normal Termination ........... 


